<?xml version="1.0" encoding="UTF-8"?>
<svg id="gun" width="700pt" height="700pt" version="1.1" viewBox="0 -57 700 700" xmlns="http://www.w3.org/2000/svg" xmlns:xlink="http://www.w3.org/1999/xlink">
 <g>
  <path d="m603.75 148.75h-26.25v-43.75c0-2.3203-0.92188-4.5469-2.5625-6.1875s-3.8672-2.5625-6.1875-2.5625h-35c-3.332-0.019531-6.3867 1.8594-7.875 4.8398l-15.031 30.16h-239.59c-2.3203 0-4.5469 0.92188-6.1875 2.5625l-11.312 11.316-20.062-20.062v-0.003906c-3.418-3.4141-8.957-3.4141-12.375 0l-26.25 26.25c-3.4141 3.418-3.4141 8.957 0 12.375l20.066 20.062-2.5625 2.5625h-0.003906c-1.6406 1.6406-2.5625 3.8672-2.5625 6.1875v31.379l-47.371 47.371h-66.379c-4.832 0-8.75 3.918-8.75 8.75v140c0 2.3203 0.92188 4.5469 2.5625 6.1875s3.8672 2.5625 6.1875 2.5625h113.75v26.25c0 2.3203 0.92188 4.5469 2.5625 6.1875s3.8672 2.5625 6.1875 2.5625h105c2.3203 0 4.5469-0.92188 6.1875-2.5625s2.5625-3.8672 2.5625-6.1875v-26.25h8.75c2.3203 0 4.5469-0.92188 6.1875-2.5625s2.5625-3.8672 2.5625-6.1875v-96.25h35c13.918-0.015625 27.266-5.5508 37.109-15.391 9.8398-9.8438 15.375-23.191 15.391-37.109v-35h131.25c2.3203 0 4.5469-0.92188 6.1875-2.5625s2.5625-3.8672 2.5625-6.1875v-8.75h26.25c2.3203 0 4.5469-0.92188 6.1875-2.5625s2.5625-3.8672 2.5625-6.1875v-52.5c0-2.3203-0.92188-4.5469-2.5625-6.1875s-3.8672-2.5625-6.1875-2.5625zm-64.594-35h20.844v17.5h-29.594zm-325.5 43.75 13.844-13.879 13.879 13.879-13.879 13.879zm-108.66 131.25h52.5v122.5h-52.5zm210 157.5h-87.5v-17.5h87.5zm17.5-35h-157.5v-127.63l47.371-47.371h162.63v35h-43.75c-4.832 0-8.75 3.918-8.75 8.75zm87.5-140c0 9.2812-3.6875 18.184-10.25 24.75-6.5664 6.5625-15.469 10.25-24.75 10.25h-35v-17.5h43.75c2.3203 0 4.5469-0.92188 6.1875-2.5625s2.5625-3.8672 2.5625-6.1875v-43.75h17.5zm140-52.5h-332.5v-22.629l47.371-47.371h285.13v17.5h-210v17.5h210zm35-17.5h-17.5v-35h17.5z"/>
  <path d="m603.75 148.75h-26.25v-43.75c0-2.3203-0.92188-4.5469-2.5625-6.1875s-3.8672-2.5625-6.1875-2.5625h-35c-3.332-0.019531-6.3867 1.8594-7.875 4.8398l-15.031 30.16h-239.59c-2.3203 0-4.5469 0.92188-6.1875 2.5625l-11.312 11.316-20.062-20.062v-0.003906c-3.418-3.4141-8.957-3.4141-12.375 0l-26.25 26.25c-3.4141 3.418-3.4141 8.957 0 12.375l20.066 20.062-2.5625 2.5625h-0.003906c-1.6406 1.6406-2.5625 3.8672-2.5625 6.1875v31.379l-47.371 47.371h-66.379c-4.832 0-8.75 3.918-8.75 8.75v140c0 2.3203 0.92188 4.5469 2.5625 6.1875s3.8672 2.5625 6.1875 2.5625h113.75v26.25c0 2.3203 0.92188 4.5469 2.5625 6.1875s3.8672 2.5625 6.1875 2.5625h105c2.3203 0 4.5469-0.92188 6.1875-2.5625s2.5625-3.8672 2.5625-6.1875v-26.25h8.75c2.3203 0 4.5469-0.92188 6.1875-2.5625s2.5625-3.8672 2.5625-6.1875v-96.25h35c13.918-0.015625 27.266-5.5508 37.109-15.391 9.8398-9.8438 15.375-23.191 15.391-37.109v-35h131.25c2.3203 0 4.5469-0.92188 6.1875-2.5625s2.5625-3.8672 2.5625-6.1875v-8.75h26.25c2.3203 0 4.5469-0.92188 6.1875-2.5625s2.5625-3.8672 2.5625-6.1875v-52.5c0-2.3203-0.92188-4.5469-2.5625-6.1875s-3.8672-2.5625-6.1875-2.5625zm-64.594-35h20.844v17.5h-29.594zm-325.5 43.75 13.844-13.879 13.879 13.879-13.879 13.879zm-108.66 131.25h52.5v122.5h-52.5zm210 157.5h-87.5v-17.5h87.5zm17.5-35h-157.5v-127.63l47.371-47.371h162.63v35h-43.75c-4.832 0-8.75 3.918-8.75 8.75zm87.5-140c0 9.2812-3.6875 18.184-10.25 24.75-6.5664 6.5625-15.469 10.25-24.75 10.25h-35v-17.5h43.75c2.3203 0 4.5469-0.92188 6.1875-2.5625s2.5625-3.8672 2.5625-6.1875v-43.75h17.5zm140-52.5h-332.5v-22.629l47.371-47.371h285.13v17.5h-210v17.5h210zm35-17.5h-17.5v-35h17.5z"/>
  <path d="m315 166.25h17.5v17.5h-17.5z"/>
  <path d="m315 166.25h17.5v17.5h-17.5z"/>
 </g>
</svg>
