<?xml version="1.0" encoding="UTF-8"?>
<svg id="add" width="700pt" height="700pt" version="1.1" viewBox="0 -57 700 700" xmlns="http://www.w3.org/2000/svg" xmlns:xlink="http://www.w3.org/1999/xlink">
 <g>
  <path d="m350 5.0742c-42.504-0.13281-84.453 9.668-122.5 28.613-4.3242 2.1758-6.0703 7.4453-3.8945 11.77s7.4453 6.0664 11.77 3.8945c35.598-17.746 74.852-26.914 114.62-26.777 62.473 0.03125 122.8 22.77 169.75 63.98 46.953 41.211 77.32 98.086 85.449 160.03 8.1289 61.941-6.5391 124.73-41.266 176.66-1.3008 1.9258-1.7852 4.2891-1.3438 6.5703 0.44531 2.2812 1.7773 4.293 3.707 5.5898 1.4609 0.94141 3.1602 1.457 4.8984 1.4883 2.9102 0.003906 5.6328-1.4375 7.2617-3.8477 37.113-55.461 52.797-122.52 44.125-188.69-8.6719-66.168-41.105-126.92-91.258-170.95-50.148-44.023-114.6-68.309-181.33-68.332z"/>
  <path d="m543.99 449.23c-7.6523 8.832-15.93 17.109-24.762 24.762-3.6211 3.1914-3.9727 8.7109-0.78906 12.336 1.6602 1.8906 4.0508 2.9727 6.5625 2.9766 2.1172 0.019531 4.168-0.72656 5.7734-2.1016 9.3242-8.1562 18.094-16.926 26.25-26.25 3.1914-3.6484 2.8203-9.1914-0.82813-12.379-3.6484-3.1914-9.1953-2.8203-12.383 0.82813z"/>
  <path d="m496.56 491.75c-51.43 35.598-114.05 51.262-176.18 44.062-62.133-7.1953-119.52-36.758-161.45-83.168-41.93-46.406-65.535-106.49-66.41-169.03-0.875-62.543 21.043-123.26 61.66-170.82 3.1406-3.6758 2.7109-9.1992-0.96484-12.34-3.6719-3.1406-9.1953-2.7109-12.336 0.96484-43.355 50.797-66.742 115.64-65.801 182.42 0.94531 66.781 26.16 130.93 70.934 180.49 44.773 49.551 106.05 81.117 172.39 88.809 66.34 7.6875 133.21-9.0273 188.14-47.027 3.957-2.7617 4.9336-8.1992 2.1875-12.164-2.7617-3.957-8.1992-4.9336-12.164-2.1875z"/>
  <path d="m169.23 93.363c2.1484-0.050781 4.2031-0.89453 5.7734-2.3633 3.5859-3.3242 7.1758-6.4766 10.938-9.5391 2.1406-1.3203 3.6094-3.5 4.0312-5.9805 0.41797-2.4805-0.25-5.0234-1.8359-6.9766-1.5859-1.9531-3.9336-3.1328-6.4492-3.2305-2.5156-0.097657-4.9492 0.89062-6.6836 2.7148-4.0234 3.2383-7.875 6.6484-11.727 10.148-2.6836 2.4414-3.582 6.2812-2.2617 9.6602 1.3203 3.3789 4.5859 5.5938 8.2148 5.5664z"/>
  <path d="m200.73 68.336c1.7422 0.003906 3.4492-0.51172 4.8984-1.4844l2.1875-1.4883c4.0352-2.6836 5.1328-8.1289 2.4492-12.164-2.6797-4.0352-8.125-5.1328-12.16-2.4492l-2.3633 1.75c-3.9883 2.7305-5.0039 8.1758-2.2773 12.164 1.6719 2.3438 4.3867 3.7188 7.2656 3.6719z"/>
  <path d="m350 96.25c-10.723 0-21.004 4.2578-28.586 11.84-7.5781 7.582-11.84 17.863-11.84 28.586v102.9h-102.9c-14.441 0-27.789 7.707-35.012 20.215-7.2188 12.508-7.2188 27.914 0 40.422 7.2227 12.508 20.57 20.215 35.012 20.215h102.9v102.9c0 14.441 7.707 27.789 20.215 35.012 12.508 7.2188 27.914 7.2188 40.422 0 12.508-7.2227 20.215-20.57 20.215-35.012v-102.9h102.9c14.441 0 27.789-7.707 35.012-20.215 7.2188-12.508 7.2188-27.914 0-40.422-7.2227-12.508-20.57-20.215-35.012-20.215h-102.9v-102.9c0-10.723-4.2617-21.004-11.84-28.586-7.582-7.582-17.863-11.84-28.586-11.84zm143.32 160.82c8.1914 0 15.758 4.3711 19.855 11.465 4.0938 7.0898 4.0938 15.832 0 22.922-4.0977 7.0938-11.664 11.465-19.855 11.465h-111.65c-4.832 0-8.75 3.918-8.75 8.75v111.65c0 8.1914-4.3711 15.758-11.465 19.855-7.0898 4.0938-15.832 4.0938-22.922 0-7.0938-4.0977-11.465-11.664-11.465-19.855v-111.65c0-2.3203-0.92188-4.5469-2.5625-6.1875s-3.8672-2.5625-6.1875-2.5625h-111.65c-8.1914 0-15.758-4.3711-19.855-11.465-4.0938-7.0898-4.0938-15.832 0-22.922 4.0977-7.0938 11.664-11.465 19.855-11.465h111.65c2.3203 0 4.5469-0.92188 6.1875-2.5625s2.5625-3.8672 2.5625-6.1875v-111.65c0-8.1914 4.3711-15.758 11.465-19.855 7.0898-4.0938 15.832-4.0938 22.922 0 7.0938 4.0977 11.465 11.664 11.465 19.855v111.65c0 2.3203 0.92188 4.5469 2.5625 6.1875s3.8672 2.5625 6.1875 2.5625z"/>
 </g>
</svg>
