<?xml version="1.0" encoding="UTF-8"?>
<svg id="snapshot-camery" width="700pt" height="700pt" version="1.1" viewBox="0 -57 700 700" xmlns="http://www.w3.org/2000/svg" xmlns:xlink="http://www.w3.org/1999/xlink">
 <g>
  <path d="m384.16 166.88c0.55859 0 1.6797 0.55859 1.6797 1.1211l11.199 28 8.9609 22.398h82.879c1.1211 0 1.6797 1.1211 1.6797 1.6797v170.8c0 1.1211-1.1211 1.6797-1.6797 1.6797h-278.32c-1.1211 0-1.6797-1.1211-1.6797-1.6797v-170.8c0-1.1211 1.1211-1.6797 1.6797-1.6797h82.879l8.9609-22.398 11.199-28c0.55859-0.55859 1.1211-1.1211 1.6797-1.1211h68.883m0-35.84h-68.879c-15.121 0-29.121 9.5195-34.719 23.52l-11.199 28h-58.805c-20.719 0-37.52 16.801-37.52 37.52v170.8c0 20.719 16.801 37.52 37.52 37.52h278.32c20.719 0 37.52-16.801 37.52-37.52v-170.8c0-20.719-16.801-37.52-37.52-37.52h-58.801l-11.199-28c-6.1602-14-19.598-23.52-34.719-23.52z"/>
  <path d="m349.44 274.4c15.68 0 28.559 12.879 28.559 28.559 0 15.68-12.879 28.559-28.559 28.559-15.68 0-28.559-12.879-28.559-28.559-0.003906-15.676 12.879-28.559 28.559-28.559m0-35.84c-35.281 0-64.398 28.559-64.398 64.398 0 35.281 28.559 64.398 64.398 64.398 35.281 0 64.398-28.559 64.398-64.398 0-35.836-28.559-64.398-64.398-64.398z"/>
  <path d="m99.121 189.84c-10.078 0-17.922-7.8398-17.922-17.922v-102.48c0-31.363 25.762-56.562 56.562-56.562h102.48c10.078 0 17.922 7.8398 17.922 17.922 0 10.078-7.8398 17.922-17.922 17.922l-102.48-0.003906c-11.762 0-21.281 9.5195-21.281 21.281v102.48c0.55859 9.5195-7.8398 17.359-17.359 17.359z"/>
  <path d="m600.32 189.84c-10.078 0-17.922-7.8398-17.922-17.922v-102.48c0-11.762-9.5195-21.281-21.281-21.281h-102.48c-10.078 0-17.922-7.8398-17.922-17.922 0-10.078 7.8398-17.922 17.922-17.922h102.48c31.359 0 56.559 25.762 56.559 56.559v102.48c0.55859 10.645-7.8398 18.484-17.359 18.484z"/>
  <path d="m240.8 547.12h-103.04c-30.801 0-56.562-25.199-56.562-56.562v-103.04c0-10.078 7.8398-17.922 17.922-17.922 10.078 0 17.922 7.8398 17.922 17.922v102.48c0 11.762 9.5195 21.281 21.281 21.281h102.48c10.078 0 17.922 7.8398 17.922 17.922-0.007812 10.078-7.8477 17.918-17.926 17.918z"/>
  <path d="m562.24 546.56h-103.04c-10.078 0-17.922-7.8398-17.922-17.922 0-10.078 7.8398-17.922 17.922-17.922h102.48c11.762 0 21.281-9.5195 21.281-21.281v-102.47c0-10.078 7.8398-17.922 17.922-17.922 10.078 0 17.922 7.8398 17.922 17.922v102.48c-0.003907 31.359-25.766 57.117-56.566 57.117z"/>
 </g>
</svg>
